<!-- Generator: Adobe Illustrator 24.0.3, SVG Export Plug-In  -->
<svg version="1.1" xmlns="http://www.w3.org/2000/svg" xmlns:xlink="http://www.w3.org/1999/xlink" x="0px" y="0px"
	 width="131.98px" height="142.96px" viewBox="0 0 131.98 142.96" style="enable-background:new 0 0 131.98 142.96;"
	 xml:space="preserve">
<style type="text/css">
	.st0{fill:#B2B2B2;}
	.st1{fill:#D8D7D6;}
	.st2{fill:#707070;}
	.st3{fill:#939393;}
	.st4{fill:#CCCCCC;}
	.st5{fill:#606060;}
</style>
<defs>
</defs>
<ellipse transform="matrix(0.8911 -0.4538 0.4538 0.8911 -37.1365 38.3205)" class="st0" cx="61.28" cy="96.54" rx="46.42" ry="46.42"/>
<path class="st1" d="M129.15,19.04l-0.24-0.05c0.79-3.26,2.17-9.43,1.26-9.47c-1.23-0.05-3.59,8.83-3.59,8.83l-0.02,0.18l-0.19-0.04
	c0.7-2.79,2.5-10.38,1.5-10.42c-1.23-0.05-3.59,8.83-3.59,8.83l-0.12,1.16l-1.23-0.24c0.5-2.68,1.28-7.36,0.6-7.42
	c-0.95-0.08-2.46,7.06-2.46,7.06l-2.31,7.88c0,0-0.15-4.13-0.47-6.36c-0.32-2.23-1.41,0.17-1.6,1.48c-0.19,1.31,0.03,7.2,0.03,7.2
	l5.98,14.78c0,0,0.55-1.2,3.17-6.85c2.63-5.65,5.31-16.14,5.31-16.14s1.11-4.06,0.69-4.2C131.36,15.07,130.11,17.21,129.15,19.04z"
	/>
<path class="st1" d="M1.96,9.71l0.23,0.01c0.05-3.16,0.26-9.12,1.1-8.94c1.13,0.25,1.18,8.91,1.18,8.91L4.44,9.86l0.18,0.01
	C4.65,7.16,4.81-0.2,5.73,0c1.13,0.25,1.18,8.91,1.18,8.91L6.74,10l1.18,0.07C8.1,7.51,8.5,3.05,9.14,3.15
	c0.88,0.15,0.56,7.02,0.56,7.02l0.23,7.74c0,0,1.12-3.73,1.94-5.69c0.82-1.96,1.25,0.49,1.11,1.73c-0.14,1.24-1.74,6.56-1.74,6.56
	L2.28,32.58c0,0-0.21-1.23-1.27-7C-0.04,19.8,0,9.59,0,9.59s-0.05-3.97,0.37-4C0.89,5.56,1.52,7.81,1.96,9.71z"/>
<path class="st1" d="M77.32,135.28L73.55,92.7c0,0,14.41-3.56,26.18-12.86c11.77-9.3,21.53-31.01,24.15-37.43
	c2.62-6.42,3.66-11.01,3.66-11.01l-10.65-4.74c0,0-3.08,11.76-9.51,23.32c-6.43,11.56-16.6,20.61-28.52,24.04
	c-11.92,3.43-27.61-0.61-27.61-0.61s-13.09-2.79-20.11-8.2c-8.4-6.48-14.4-19.4-16.76-27.36c-2.36-7.96-3.14-17.33-3.14-17.33
	L1.01,25.58c0,0,2.39,18.57,7.7,30.74c4.75,10.89,11.87,21.05,22.32,27.34s12.39,6.99,12.39,6.99s-0.41,45.58-0.46,48.05"/>
<g>
	<path class="st2" d="M80.93,138.6c-2.2-2.1-3.6-3.32-3.6-3.32l-0.84-9.46c-3.38,1.31-7.91,2.5-13.88,3.08
		c-9.57,0.92-15.83,0.28-19.49-0.46c-0.04,4.56-0.08,8.43-0.11,10.79c5.61,2.4,11.78,3.74,18.27,3.74
		C68.3,142.96,74.96,141.4,80.93,138.6z"/>
</g>
<path class="st3" d="M76.76,128.89L73.55,92.7c0,0,14.41-3.56,26.18-12.86c2.99-2.37,5.86-5.54,8.51-9.05l-8.56-10.11
	c-5.78,6.31-12.91,11.07-20.81,13.34c-11.92,3.43-27.61-0.61-27.61-0.61s-13.09-2.79-20.11-8.2c-6.33-4.88-11.29-13.41-14.36-20.73
	L6.5,50.7c0.45,1.68,0.85,1.75,1.33,3.19c3.73,11.28,12.75,23.47,23.2,29.76s12.39,6.99,12.39,6.99s-0.19,26.34-0.33,41.18
	C48.18,133.62,59.74,135.87,76.76,128.89z"/>
<path class="st4" d="M55.04,64.89c0,0-2.83,9-2.87,12.82c-0.04,3.82-0.17,6.64,5.33,6.64s6.72-6.02,6.72-6.02l1.93-8.85L55.04,64.89
	z"/>
<path class="st5" d="M49.38,48.57c0.93,2.04,3.8,7.97,3.8,7.97s3.35,2.71,4.54-0.48c1.19-3.19-1.81-7.46,2.81-10.09
	c2.79-1.59,6.82-0.33,9.9,0.03c1.54,1.08,3,2.33,3.46,4.19c1.21,4.81-3.17,6.32-4.37,9.51c-1.19,3.19,2.45,3.1,2.45,3.1
	s5.29-2.86,7.08-3.89c0,0,10.12-11.84,0-21.63s-22.88,0-28.61,0S49.38,48.57,49.38,48.57z"/>
<path class="st1" d="M54.76,56.52c0,0-0.87-5.51-3.26-2.67s-0.19,6.73,1.36,6.93C54.42,60.98,54.76,56.52,54.76,56.52z"/>
<path class="st1" d="M72.26,58.76c0,0,2.94-1.87,3.49,0.9s-1.54,4.98-2.95,5.48c-1.41,0.49-2.13-0.95-2.13-0.95L72.26,58.76z"/>
<path class="st1" d="M57.23,46.03c0,0-5.55,13.47-3.82,19.32c1.73,5.85,6.84,8.08,12.53,5.88c5.68-2.2,10.34-20.96,10.34-20.96
	S71.05,38.34,57.23,46.03z"/>
</svg>
